{\rtf1}<?php return array (
  'app' => 
  array (
    'name' => 'Laravel',
    'env' => 'local',
    'debug' => true,
    'url' => 'http://localhost',
    'asset_url' => NULL,
    'timezone' => 'UTC',
    'locale' => 'en',
    'fallback_locale' => 'en',
    'faker_locale' => 'en_US',
    'key' => 'base64:LmtynVNHKKjto5zSRfH9gYvmi/A33ntAOkhq8Sk78IE=',
    'cipher' => 'AES-256-CBC',
    'providers' => 
    array (
      0 => 'Illuminate\\Auth\\AuthServiceProvider',
      1 => 'Illuminate\\Broadcasting\\BroadcastServiceProvider',
      2 => 'Illuminate\\Bus\\BusServiceProvider',
      3 => 'Illuminate\\Cache\\CacheServiceProvider',
      4 => 'Illuminate\\Foundation\\Providers\\ConsoleSupportServiceProvider',
      5 => 'Illuminate\\Cookie\\CookieServiceProvider',
      6 => 'Illuminate\\Database\\DatabaseServiceProvider',
      7 => 'Illuminate\\Encryption\\EncryptionServiceProvider',
      8 => 'Illuminate\\Filesystem\\FilesystemServiceProvider',
      9 => 'Illuminate\\Foundation\\Providers\\FoundationServiceProvider',
      10 => 'Illuminate\\Hashing\\HashServiceProvider',
      11 => 'Illuminate\\Mail\\MailServiceProvider',
      12 => 'Illuminate\\Notifications\\NotificationServiceProvider',
      13 => 'Illuminate\\Pagination\\PaginationServiceProvider',
      14 => 'Illuminate\\Pipeline\\PipelineServiceProvider',
      15 => 'Illuminate\\Queue\\QueueServiceProvider',
      16 => 'Illuminate\\Redis\\RedisServiceProvider',
      17 => 'Illuminate\\Auth\\Passwords\\PasswordResetServiceProvider',
      18 => 'Illuminate\\Session\\SessionServiceProvider',
      19 => 'Illuminate\\Translation\\TranslationServiceProvider',
      20 => 'Illuminate\\Validation\\ValidationServiceProvider',
      21 => 'Illuminate\\View\\ViewServiceProvider',
      22 => 'App\\Providers\\AppServiceProvider',
      23 => 'App\\Providers\\AuthServiceProvider',
      24 => 'App\\Providers\\EventServiceProvider',
      25 => 'App\\Providers\\RouteServiceProvider',
    ),
    'aliases' => 
    array (
      'App' => 'Illuminate\\Support\\Facades\\App',
      'Arr' => 'Illuminate\\Support\\Arr',
      'Artisan' => 'Illuminate\\Support\\Facades\\Artisan',
      'Auth' => 'Illuminate\\Support\\Facades\\Auth',
      'Blade' => 'Illuminate\\Support\\Facades\\Blade',
      'Broadcast' => 'Illuminate\\Support\\Facades\\Broadcast',
      'Bus' => 'Illuminate\\Support\\Facades\\Bus',
      'Cache' => 'Illuminate\\Support\\Facades\\Cache',
      'Config' => 'Illuminate\\Support\\Facades\\Config',
      'Cookie' => 'Illuminate\\Support\\Facades\\Cookie',
      'Crypt' => 'Illuminate\\Support\\Facades\\Crypt',
      'DB' => 'Illuminate\\Support\\Facades\\DB',
      'Eloquent' => 'Illuminate\\Database\\Eloquent\\Model',
      'Event' => 'Illuminate\\Support\\Facades\\Event',
      'File' => 'Illuminate\\Support\\Facades\\File',
      'Gate' => 'Illuminate\\Support\\Facades\\Gate',
      'Hash' => 'Illuminate\\Support\\Facades\\Hash',
      'Http' => 'Illuminate\\Support\\Facades\\Http',
      'Lang' => 'Illuminate\\Support\\Facades\\Lang',
      'Log' => 'Illuminate\\Support\\Facades\\Log',
      'Mail' => 'Illuminate\\Support\\Facades\\Mail',
      'Notification' => 'Illuminate\\Support\\Facades\\Notification',
      'Password' => 'Illuminate\\Support\\Facades\\Password',
      'Queue' => 'Illuminate\\Support\\Facades\\Queue',
      'Redirect' => 'Illuminate\\Support\\Facades\\Redirect',
      'Redis' => 'Illuminate\\Support\\Facades\\Redis',
      'Request' => 'Illuminate\\Support\\Facades\\Request',
      'Response' => 'Illuminate\\Support\\Facades\\Response',
      'Route' => 'Illuminate\\Support\\Facades\\Route',
      'Schema' => 'Illuminate\\Support\\Facades\\Schema',
      'Session' => 'Illuminate\\Support\\Facades\\Session',
      'Storage' => 'Illuminate\\Support\\Facades\\Storage',
      'Str' => 'Illuminate\\Support\\Str',
      'URL' => 'Illuminate\\Support\\Facades\\URL',
      'Validator' => 'Illuminate\\Support\\Facades\\Validator',
      'View' => 'Illuminate\\Support\\Facades\\View',
    ),
  ),
  'auth' => 
  array (
    'defaults' => 
    array (
      'guard' => 'web',
      'passwords' => 'users',
    ),
    'guards' => 
    array (
      'web' => 
      array (
        'driver' => 'session',
        'provider' => 'users',
      ),
      'api' => 
      array (
        'driver' => 'token',
        'provider' => 'users',
        'hash' => false,
      ),
    ),
    'providers' => 
    array (
      'users' => 
      array (
        'driver' => 'eloquent',
        'model' => 'App\\User',
      ),
    ),
    'passwords' => 
    array (
      'users' => 
      array (
        'provider' => 'users',
        'table' => 'password_resets',
        'expire' => 60,
        'throttle' => 60,
      ),
    ),
    'password_timeout' => 10800,
  ),
  'broadcasting' => 
  array (
    'default' => 'log',
    'connections' => 
    array (
      'pusher' => 
      array (
        'driver' => 'pusher',
        'key' => '',
        'secret' => '',
        'app_id' => '',
        'options' => 
        array (
          'cluster' => 'mt1',
          'useTLS' => true,
        ),
      ),
      'redis' => 
      array (
        'driver' => 'redis',
        'connection' => 'default',
      ),
      'log' => 
      array (
        'driver' => 'log',
      ),
      'null' => 
      array (
        'driver' => 'null',
      ),
    ),
  ),
  'cache' => 
  array (
    'default' => 'file',
    'stores' => 
    array (
      'apc' => 
      array (
        'driver' => 'apc',
      ),
      'array' => 
      array (
        'driver' => 'array',
        'serialize' => false,
      ),
      'database' => 
      array (
        'driver' => 'database',
        'table' => 'cache',
        'connection' => NULL,
      ),
      'file' => 
      array (
        'driver' => 'file',
        'path' => 'C:\\xampp\\htdocs\\DepoKuyuWeb\\storage\\framework/cache/data',
      ),
      'memcached' => 
      array (
        'driver' => 'memcached',
        'persistent_id' => NULL,
        'sasl' => 
        array (
          0 => NULL,
          1 => NULL,
        ),
        'options' => 
        array (
        ),
        'servers' => 
        array (
          0 => 
          array (
            'host' => '127.0.0.1',
            'port' => 11211,
            'weight' => 100,
          ),
        ),
      ),
      'redis' => 
      array (
        'driver' => 'redis',
        'connection' => 'cache',
      ),
      'dynamodb' => 
      array (
        'driver' => 'dynamodb',
        'key' => '',
        'secret' => '',
        'region' => 'us-east-1',
        'table' => 'cache',
        'endpoint' => NULL,
      ),
    ),
    'prefix' => 'laravel_cache',
  ),
  'cors' => 
  array (
    'paths' => 
    array (
      0 => 'api/*',
    ),
    'allowed_methods' => 
    array (
      0 => '*',
    ),
    'allowed_origins' => 
    array (
      0 => '*',
    ),
    'allowed_origins_patterns' => 
    array (
    ),
    'allowed_headers' => 
    array (
      0 => '*',
    ),
    'exposed_headers' => 
    array (
    ),
    'max_age' => 0,
    'supports_credentials' => false,
  ),
  'database' => 
  array (
    'default' => 'mysql',
    'connections' => 
    array (
      'sqlite' => 
      array (
        'driver' => 'sqlite',
        'url' => NULL,
        'database' => 'depokuyu',
        'prefix' => '',
        'foreign_key_constraints' => true,
      ),
      'mysql' => 
      array (
        'driver' => 'mysql',
        'url' => NULL,
        'host' => '127.0.0.1',
        'port' => '3306',
        'database' => 'depokuyu',
        'username' => 'root',
        'password' => '',
        'unix_socket' => '',
        'charset' => 'utf8mb4',
        'collation' => 'utf8mb4_unicode_ci',
        'prefix' => '',
        'prefix_indexes' => true,
        'strict' => true,
        'engine' => NULL,
        'options' => 
        array (
        ),
      ),
      'pgsql' => 
      array (
        'driver' => 'pgsql',
        'url' => NULL,
        'host' => '127.0.0.1',
        'port' => '3306',
        'database' => 'depokuyu',
        'username' => 'root',
        'password' => '',
        'charset' => 'utf8',
        'prefix' => '',
        'prefix_indexes' => true,
        'schema' => 'public',
        'sslmode' => 'prefer',
      ),
      'sqlsrv' => 
      array (
        'driver' => 'sqlsrv',
        'url' => NULL,
        'host' => '127.0.0.1',
        'port' => '1433',
        'database' => 'depokuyu',
        'username' => 'root',
        'password' => '',
        'charset' => 'utf8',
        'prefix' => '',
        'prefix_indexes' => true,
      ),
    ),
    'migrations' => 'migrations',
    'redis' => 
    array (
      'client' => 'phpredis',
      'options' => 
      array (
        'cluster' => 'redis',
        'prefix' => 'laravel_database_',
      ),
      'default' => 
      array (
        'url' => NULL,
        'host' => '127.0.0.1',
        'password' => NULL,
        'port' => '6379',
        'database' => '0',
      ),
      'cache' => 
      array (
        'url' => NULL,
        'host' => '127.0.0.1',
        'password' => NULL,
        'port' => '6379',
        'database' => '1',
      ),
    ),
  ),
  'filesystems' => 
  array (
    'default' => 'local',
    'cloud' => 's3',
    'disks' => 
    array (
      'local' => 
      array (
        'driver' => 'local',
        'root' => 'C:\\xampp\\htdocs\\DepoKuyuWeb\\storage\\app',
      ),
      'public' => 
      array (
        'driver' => 'local',
        'root' => 'C:\\xampp\\htdocs\\DepoKuyuWeb\\storage\\app/public',
        'url' => 'http://localhost/storage',
        'visibility' => 'public',
      ),
      's3' => 
      array (
        'driver' => 's3',
        'key' => '',
        'secret' => '',
        'region' => 'us-east-1',
        'bucket' => '',
        'url' => NULL,
        'endpoint' => NULL,
      ),
    ),
    'links' => 
    array (
      'C:\\xampp\\htdocs\\DepoKuyuWeb\\public\\storage' => 'C:\\xampp\\htdocs\\DepoKuyuWeb\\storage\\app/public',
    ),
  ),
  'hashing' => 
  array (
    'driver' => 'bcrypt',
    'bcrypt' => 
    array (
      'rounds' => 10,
    ),
    'argon' => 
    array (
      'memory' => 1024,
      'threads' => 2,
      'time' => 2,
    ),
  ),
  'logging' => 
  array (
    'default' => 'stack',
    'channels' => 
    array (
      'stack' => 
      array (
        'driver' => 'stack',
        'channels' => 
        array (
          0 => 'single',
        ),
        'ignore_exceptions' => false,
      ),
      'single' => 
      array (
        'driver' => 'single',
        'path' => 'C:\\xampp\\htdocs\\DepoKuyuWeb\\storage\\logs/laravel.log',
        'level' => 'debug',
      ),
      'daily' => 
      array (
        'driver' => 'daily',
        'path' => 'C:\\xampp\\htdocs\\DepoKuyuWeb\\storage\\logs/laravel.log',
        'level' => 'debug',
        'days' => 14,
      ),
      'slack' => 
      array (
        'driver' => 'slack',
        'url' => NULL,
        'username' => 'Laravel Log',
        'emoji' => ':boom:',
        'level' => 'critical',
      ),
      'papertrail' => 
      array (
        'driver' => 'monolog',
        'level' => 'debug',
        'handler' => 'Monolog\\Handler\\SyslogUdpHandler',
        'handler_with' => 
        array (
          'host' => NULL,
          'port' => NULL,
        ),
      ),
      'stderr' => 
      array (
        'driver' => 'monolog',
        'handler' => 'Monolog\\Handler\\StreamHandler',
        'formatter' => NULL,
        'with' => 
        array (
          'stream' => 'php://stderr',
        ),
      ),
      'syslog' => 
      array (
        'driver' => 'syslog',
        'level' => 'debug',
      ),
      'errorlog' => 
      array (
        'driver' => 'errorlog',
        'level' => 'debug',
      ),
      'null' => 
      array (
        'driver' => 'monolog',
        'handler' => 'Monolog\\Handler\\NullHandler',
      ),
      'emergency' => 
      array (
        'path' => 'C:\\xampp\\htdocs\\DepoKuyuWeb\\storage\\logs/laravel.log',
      ),
    ),
  ),
  'mail' => 
  array (
    'default' => 'smtp',
    'mailers' => 
    array (
      'smtp' => 
      array (
        'transport' => 'smtp',
        'host' => 'smtp.mailtrap.io',
        'port' => 2525,
        'encryption' => NULL,
        'username' => NULL,
        'password' => NULL,
        'timeout' => NULL,
        'auth_mode' => NULL,
      ),
      'ses' => 
      array (
        'transport' => 'ses',
      ),
      'mailgun' => 
      array (
        'transport' => 'mailgun',
      ),
      'postmark' => 
      array (
        'transport' => 'postmark',
      ),
      'sendmail' => 
      array (
        'transport' => 'sendmail',
        'path' => '/usr/sbin/sendmail -bs',
      ),
      'log' => 
      array (
        'transport' => 'log',
        'channel' => NULL,
      ),
      'array' => 
      array (
        'transport' => 'array',
      ),
    ),
    'from' => 
    array (
      'address' => NULL,
      'name' => 'Laravel',
    ),
    'markdown' => 
    array (
      'theme' => 'default',
      'paths' => 
      array (
        0 => 'C:\\xampp\\htdocs\\DepoKuyuWeb\\resources\\views/vendor/mail',
      ),
    ),
  ),
  'queue' => 
  array (
    'default' => 'sync',
    'connections' => 
    array (
      'sync' => 
      array (
        'driver' => 'sync',
      ),
      'database' => 
      array (
        'driver' => 'database',
        'table' => 'jobs',
        'queue' => 'default',
        'retry_after' => 90,
      ),
      'beanstalkd' => 
      array (
        'driver' => 'beanstalkd',
        'host' => 'localhost',
        'queue' => 'default',
        'retry_after' => 90,
        'block_for' => 0,
      ),
      'sqs' => 
      array (
        'driver' => 'sqs',
        'key' => '',
        'secret' => '',
        'prefix' => 'https://sqs.us-east-1.amazonaws.com/your-account-id',
        'queue' => 'your-queue-name',
        'suffix' => NULL,
        'region' => 'us-east-1',
      ),
      'redis' => 
      array (
        'driver' => 'redis',
        'connection' => 'default',
        'queue' => 'default',
        'retry_after' => 90,
        'block_for' => NULL,
      ),
    ),
    'failed' => 
    array (
      'driver' => 'database',
      'database' => 'mysql',
      'table' => 'failed_jobs',
    ),
  ),
  'services' => 
  array (
    'mailgun' => 
    array (
      'domain' => NULL,
      'secret' => NULL,
      'endpoint' => 'api.mailgun.net',
    ),
    'postmark' => 
    array (
      'token' => NULL,
    ),
    'ses' => 
    array (
      'key' => '',
      'secret' => '',
      'region' => 'us-east-1',
    ),
  ),
  'session' => 
  array (
    'driver' => 'file',
    'lifetime' => '120',
    'expire_on_close' => false,
    'encrypt' => false,
    'files' => 'C:\\xampp\\htdocs\\DepoKuyuWeb\\storage\\framework/sessions',
    'connection' => NULL,
    'table' => 'sessions',
    'store' => NULL,
    'lottery' => 
    array (
      0 => 2,
      1 => 100,
    ),
    'cookie' => 'laravel_session',
    'path' => '/',
    'domain' => NULL,
    'secure' => NULL,
    'http_only' => true,
    'same_site' => 'lax',
  ),
  'sweetalert' => 
  array (
    'cdn' => NULL,
    'alwaysLoadJS' => false,
    'neverLoadJS' => false,
    'timer' => 5000,
    'width' => '32rem',
    'height_auto' => true,
    'padding' => '1.25rem',
    'animation' => 
    array (
      'enable' => false,
    ),
    'animatecss' => 'https://cdn.jsdelivr.net/npm/animate.css',
    'show_confirm_button' => true,
    'show_close_button' => false,
    'toast_position' => 'top-end',
    'middleware' => 
    array (
      'autoClose' => false,
      'toast_position' => 'top-end',
      'toast_close_button' => true,
      'timer' => 6000,
      'auto_display_error_messages' => false,
    ),
    'customClass' => 
    array (
      'container' => NULL,
      'popup' => NULL,
      'header' => NULL,
      'title' => NULL,
      'closeButton' => NULL,
      'icon' => NULL,
      'image' => NULL,
      'content' => NULL,
      'input' => NULL,
      'actions' => NULL,
      'confirmButton' => NULL,
      'cancelButton' => NULL,
      'footer' => NULL,
    ),
  ),
  'view' => 
  array (
    'paths' => 
    array (
      0 => 'C:\\xampp\\htdocs\\DepoKuyuWeb\\resources\\views',
    ),
    'compiled' => 'C:\\xampp\\htdocs\\DepoKuyuWeb\\storage\\framework\\views',
  ),
  'flare' => 
  array (
    'key' => NULL,
    'reporting' => 
    array (
      'anonymize_ips' => true,
      'collect_git_information' => false,
      'report_queries' => true,
      'maximum_number_of_collected_queries' => 200,
      'report_query_bindings' => true,
      'report_view_data' => true,
      'grouping_type' => NULL,
    ),
    'send_logs_as_events' => true,
  ),
  'ignition' => 
  array (
    'editor' => 'phpstorm',
    'theme' => 'light',
    'enable_share_button' => true,
    'register_commands' => false,
    'ignored_solution_providers' => 
    array (
      0 => 'Facade\\Ignition\\SolutionProviders\\MissingPackageSolutionProvider',
    ),
    'enable_runnable_solutions' => NULL,
    'remote_sites_path' => '',
    'local_sites_path' => '',
    'housekeeping_endpoint_prefix' => '_ignition',
  ),
  'trustedproxy' => 
  array (
    'proxies' => NULL,
    'headers' => 30,
  ),
  'tinker' => 
  array (
    'commands' => 
    array (
    ),
    'alias' => 
    array (
    ),
    'dont_alias' => 
    array (
      0 => 'App\\Nova',
    ),
  ),
);
